111111111111111111111111111111111111
                          33    1111
                 33    111111111    
   33   33    111111111             
11111111111111                      
     33   33   33   33   33     1111