111111111111111111111111111111111111
1              2 1           2 1        
1            2 11            1     
1        3 2 111         2 1          
1   2  11111             1           
1 11111  222222  33    1               