%YAML 1.1
%TAG !u! tag:unity3d.com,2011:
--- !u!1 &33574872341874599
GameObject:
  m_ObjectHideFlags: 0
  m_CorrespondingSourceObject: {fileID: 0}
  m_PrefabInstance: {fileID: 0}
  m_PrefabAsset: {fileID: 0}
  serializedVersion: 6
  m_Component:
  - component: {fileID: 2670709501030654828}
  - component: {fileID: 114364981249760808}
  m_Layer: 2
  m_Name: danger_holder
  m_TagString: Untagged
  m_Icon: {fileID: 0}
  m_NavMeshLayer: 0
  m_StaticEditorFlags: 0
  m_IsActive: 1
--- !u!4 &2670709501030654828
Transform:
  m_ObjectHideFlags: 0
  m_CorrespondingSourceObject: {fileID: 0}
  m_PrefabInstance: {fileID: 0}
  m_PrefabAsset: {fileID: 0}
  m_GameObject: {fileID: 33574872341874599}
  m_LocalRotation: {x: 0, y: 0, z: 0, w: 1}
  m_LocalPosition: {x: 0, y: 0, z: 0}
  m_LocalScale: {x: 1, y: 1, z: 1}
  m_Children:
  - {fileID: 1579728353054583107}
  - {fileID: 6991653921484016352}
  m_Father: {fileID: 0}
  m_RootOrder: 0
  m_LocalEulerAnglesHint: {x: 0, y: 0, z: 0}
--- !u!114 &114364981249760808
MonoBehaviour:
  m_ObjectHideFlags: 0
  m_CorrespondingSourceObject: {fileID: 0}
  m_PrefabInstance: {fileID: 0}
  m_PrefabAsset: {fileID: 0}
  m_GameObject: {fileID: 33574872341874599}
  m_Enabled: 1
  m_EditorHideFlags: 0
  m_Script: {fileID: 11500000, guid: d7efb9f2b6ccfe74a9b247449a6aa51c, type: 3}
  m_Name: 
  m_EditorClassIdentifier: 
  hero: {fileID: 0}
  disk: {fileID: 0}
  origin: {x: 0, y: 0, z: 0}
  originUnreached: {x: 0, y: 0, z: 0}
--- !u!1 &1854710301102571934
GameObject:
  m_ObjectHideFlags: 0
  m_CorrespondingSourceObject: {fileID: 0}
  m_PrefabInstance: {fileID: 0}
  m_PrefabAsset: {fileID: 0}
  serializedVersion: 6
  m_Component:
  - component: {fileID: 1579728353054583107}
  - component: {fileID: 5668082594122407340}
  - component: {fileID: 6607390195477672996}
  m_Layer: 2
  m_Name: danger
  m_TagString: Untagged
  m_Icon: {fileID: 0}
  m_NavMeshLayer: 0
  m_StaticEditorFlags: 0
  m_IsActive: 1
--- !u!4 &1579728353054583107
Transform:
  m_ObjectHideFlags: 0
  m_CorrespondingSourceObject: {fileID: 0}
  m_PrefabInstance: {fileID: 0}
  m_PrefabAsset: {fileID: 0}
  m_GameObject: {fileID: 1854710301102571934}
  m_LocalRotation: {x: 0, y: 0.7071068, z: 0.7071068, w: 0}
  m_LocalPosition: {x: 0, y: -0.7, z: 0}
  m_LocalScale: {x: 1, y: 1, z: 1}
  m_Children: []
  m_Father: {fileID: 2670709501030654828}
  m_RootOrder: 0
  m_LocalEulerAnglesHint: {x: -90, y: 180, z: 0}
--- !u!33 &5668082594122407340
MeshFilter:
  m_ObjectHideFlags: 0
  m_CorrespondingSourceObject: {fileID: 0}
  m_PrefabInstance: {fileID: 0}
  m_PrefabAsset: {fileID: 0}
  m_GameObject: {fileID: 1854710301102571934}
  m_Mesh: {fileID: -8586770294792153069, guid: 442924842b04ccc4dbb7b699fb945762, type: 3}
--- !u!23 &6607390195477672996
MeshRenderer:
  m_ObjectHideFlags: 0
  m_CorrespondingSourceObject: {fileID: 0}
  m_PrefabInstance: {fileID: 0}
  m_PrefabAsset: {fileID: 0}
  m_GameObject: {fileID: 1854710301102571934}
  m_Enabled: 1
  m_CastShadows: 0
  m_ReceiveShadows: 1
  m_DynamicOccludee: 1
  m_MotionVectors: 2
  m_LightProbeUsage: 0
  m_ReflectionProbeUsage: 0
  m_RayTracingMode: 2
  m_RenderingLayerMask: 1
  m_RendererPriority: 0
  m_Materials:
  - {fileID: 2100000, guid: 9605f95e8cfc72342a1169cbfb2bb697, type: 2}
  m_StaticBatchInfo:
    firstSubMesh: 0
    subMeshCount: 0
  m_StaticBatchRoot: {fileID: 0}
  m_ProbeAnchor: {fileID: 0}
  m_LightProbeVolumeOverride: {fileID: 0}
  m_ScaleInLightmap: 1
  m_ReceiveGI: 1
  m_PreserveUVs: 0
  m_IgnoreNormalsForChartDetection: 0
  m_ImportantGI: 0
  m_StitchLightmapSeams: 0
  m_SelectedEditorRenderState: 3
  m_MinimumChartSize: 4
  m_AutoUVMaxDistance: 0.5
  m_AutoUVMaxAngle: 89
  m_LightmapParameters: {fileID: 0}
  m_SortingLayerID: 0
  m_SortingLayer: 0
  m_SortingOrder: 0
--- !u!1001 &6991653921483886690
PrefabInstance:
  m_ObjectHideFlags: 0
  serializedVersion: 2
  m_Modification:
    m_TransformParent: {fileID: 2670709501030654828}
    m_Modifications:
    - target: {fileID: 100000, guid: 3d4907e6bd39f474b8fd8220920e65c4, type: 3}
      propertyPath: m_Name
      value: CFX3_Vortex_Ground
      objectReference: {fileID: 0}
    - target: {fileID: 100000, guid: 3d4907e6bd39f474b8fd8220920e65c4, type: 3}
      propertyPath: m_IsActive
      value: 0
      objectReference: {fileID: 0}
    - target: {fileID: 400002, guid: 3d4907e6bd39f474b8fd8220920e65c4, type: 3}
      propertyPath: m_LocalPosition.x
      value: -0.3
      objectReference: {fileID: 0}
    - target: {fileID: 400002, guid: 3d4907e6bd39f474b8fd8220920e65c4, type: 3}
      propertyPath: m_LocalPosition.y
      value: -0.2
      objectReference: {fileID: 0}
    - target: {fileID: 400002, guid: 3d4907e6bd39f474b8fd8220920e65c4, type: 3}
      propertyPath: m_LocalPosition.z
      value: 0
      objectReference: {fileID: 0}
    - target: {fileID: 400002, guid: 3d4907e6bd39f474b8fd8220920e65c4, type: 3}
      propertyPath: m_LocalRotation.x
      value: -0.6830127
      objectReference: {fileID: 0}
    - target: {fileID: 400002, guid: 3d4907e6bd39f474b8fd8220920e65c4, type: 3}
      propertyPath: m_LocalRotation.y
      value: -0.18301266
      objectReference: {fileID: 0}
    - target: {fileID: 400002, guid: 3d4907e6bd39f474b8fd8220920e65c4, type: 3}
      propertyPath: m_LocalRotation.z
      value: 0.18301274
      objectReference: {fileID: 0}
    - target: {fileID: 400002, guid: 3d4907e6bd39f474b8fd8220920e65c4, type: 3}
      propertyPath: m_LocalRotation.w
      value: 0.68301266
      objectReference: {fileID: 0}
    - target: {fileID: 400002, guid: 3d4907e6bd39f474b8fd8220920e65c4, type: 3}
      propertyPath: m_RootOrder
      value: 1
      objectReference: {fileID: 0}
    - target: {fileID: 400002, guid: 3d4907e6bd39f474b8fd8220920e65c4, type: 3}
      propertyPath: m_LocalEulerAnglesHint.x
      value: -60
      objectReference: {fileID: 0}
    - target: {fileID: 400002, guid: 3d4907e6bd39f474b8fd8220920e65c4, type: 3}
      propertyPath: m_LocalEulerAnglesHint.y
      value: -90.00001
      objectReference: {fileID: 0}
    - target: {fileID: 400002, guid: 3d4907e6bd39f474b8fd8220920e65c4, type: 3}
      propertyPath: m_LocalEulerAnglesHint.z
      value: 90.00001
      objectReference: {fileID: 0}
    - target: {fileID: 19800002, guid: 3d4907e6bd39f474b8fd8220920e65c4, type: 3}
      propertyPath: InitialModule.startColor.maxColor.r
      value: 1
      objectReference: {fileID: 0}
    - target: {fileID: 19800002, guid: 3d4907e6bd39f474b8fd8220920e65c4, type: 3}
      propertyPath: InitialModule.startColor.maxColor.g
      value: 1
      objectReference: {fileID: 0}
    - target: {fileID: 19800002, guid: 3d4907e6bd39f474b8fd8220920e65c4, type: 3}
      propertyPath: InitialModule.startColor.maxColor.b
      value: 1
      objectReference: {fileID: 0}
    - target: {fileID: 19800002, guid: 3d4907e6bd39f474b8fd8220920e65c4, type: 3}
      propertyPath: InitialModule.startColor.minColor.r
      value: 1
      objectReference: {fileID: 0}
    - target: {fileID: 19800002, guid: 3d4907e6bd39f474b8fd8220920e65c4, type: 3}
      propertyPath: InitialModule.startColor.minColor.g
      value: 1
      objectReference: {fileID: 0}
    - target: {fileID: 19800002, guid: 3d4907e6bd39f474b8fd8220920e65c4, type: 3}
      propertyPath: InitialModule.startColor.minColor.b
      value: 1
      objectReference: {fileID: 0}
    m_RemovedComponents: []
  m_SourcePrefab: {fileID: 100100000, guid: 3d4907e6bd39f474b8fd8220920e65c4, type: 3}
--- !u!4 &6991653921484016352 stripped
Transform:
  m_CorrespondingSourceObject: {fileID: 400002, guid: 3d4907e6bd39f474b8fd8220920e65c4,
    type: 3}
  m_PrefabInstance: {fileID: 6991653921483886690}
  m_PrefabAsset: {fileID: 0}
